<?xml version="1.0" encoding="UTF-8" standalone="no"?>
<!DOCTYPE svg PUBLIC "-//W3C//DTD SVG 1.1//EN" "http://www.w3.org/Graphics/SVG/1.1/DTD/svg11.dtd">
<svg width="100%" height="100%" viewBox="0 0 250 250" version="1.1" xmlns="http://www.w3.org/2000/svg" xmlns:xlink="http://www.w3.org/1999/xlink" xml:space="preserve" xmlns:serif="http://www.serif.com/" style="fill-rule:evenodd;clip-rule:evenodd;stroke-linecap:round;stroke-linejoin:round;stroke-miterlimit:1.5;">
    <g transform="matrix(1,0,0,1,-4,-4)">
        <path d="M238,74.5C238,44.421 213.579,20 183.5,20L74.5,20C44.421,20 20,44.421 20,74.5L20,183.5C20,213.579 44.421,238 74.5,238L183.5,238C213.579,238 238,213.579 238,183.5L238,74.5Z" style="fill:rgb(27,77,126);stroke:rgb(14,41,66);stroke-width:7.28px;"/>
    </g>
    <g transform="matrix(0.603845,0,0,0.603845,11.8598,107.307)">
        <text x="83.234px" y="136.527px" style="font-family:'GillSans-UltraBold', 'Gill Sans Ultra Bold', sans-serif;font-size:288px;fill:white;">S</text>
    </g>
</svg>
